^C:\USERS\משתמש\DESKTOP\מגשימים\שנה ב\CPP\שיעור 6\DEBUGWORKSHOP\DEBUGWORKSHOP\SHAPES\SHAPE.CPP
/c /ZI /JMC /nologo /W3 /WX- /diagnostics:column /sdl /Od /Oy- /D _MBCS /Gm- /EHsc /RTC1 /MDd /GS /fp:precise /permissive- /Zc:wchar_t /Zc:forScope /Zc:inline /Fo"DEBUG\\" /Fd"DEBUG\VC142.PDB" /Gd /TP /analyze- /FC C:\USERS\משתמש\DESKTOP\מגשימים\שנה ב\CPP\שיעור 6\DEBUGWORKSHOP\DEBUGWORKSHOP\SHAPES\SHAPE.CPP
^C:\USERS\משתמש\DESKTOP\מגשימים\שנה ב\CPP\שיעור 6\DEBUGWORKSHOP\DEBUGWORKSHOP\SHAPES\SHAPES.CPP
/c /ZI /JMC /nologo /W3 /WX- /diagnostics:column /sdl /Od /Oy- /D _MBCS /Gm- /EHsc /RTC1 /MDd /GS /fp:precise /permissive- /Zc:wchar_t /Zc:forScope /Zc:inline /Fo"DEBUG\\" /Fd"DEBUG\VC142.PDB" /Gd /TP /analyze- /FC C:\USERS\משתמש\DESKTOP\מגשימים\שנה ב\CPP\שיעור 6\DEBUGWORKSHOP\DEBUGWORKSHOP\SHAPES\SHAPES.CPP
^C:\USERS\משתמש\DESKTOP\מגשימים\שנה ב\CPP\שיעור 6\DEBUGWORKSHOP\DEBUGWORKSHOP\SHAPES\TRIANGLE.CPP
/c /ZI /JMC /nologo /W3 /WX- /diagnostics:column /sdl /Od /Oy- /D _MBCS /Gm- /EHsc /RTC1 /MDd /GS /fp:precise /permissive- /Zc:wchar_t /Zc:forScope /Zc:inline /Fo"DEBUG\\" /Fd"DEBUG\VC142.PDB" /Gd /TP /analyze- /FC C:\USERS\משתמש\DESKTOP\מגשימים\שנה ב\CPP\שיעור 6\DEBUGWORKSHOP\DEBUGWORKSHOP\SHAPES\TRIANGLE.CPP
